[
    {
        "id": 1,
        "name": "Family 1",
        "surname": "Family 1",
        "phone": "1111111111"
    },
    {
        "id": 2,
        "name": "Family 2",
        "surname": "Family 2",
        "phone": "2222222222"
    },
    {
        "id": 3,
        "name": "Family 3",
        "surname": "Family 3",
        "phone": "3333333333"
    },
    {
        "id": 4,
        "name": "Family 4",
        "surname": "Family 4",
        "phone": "4444444444"
    }
]
